{
	"name": "AlmaKaitaiDev",
	"build": {
		"dockerfile": "Dockerfile"
	},
	"extensions": [
		"fudgepops.kaitai-struct-vscode",
		"eamodio.gitlens",
		"GitHub.copilot-chat",
		"GitHub.copilot",
		"GitLab.gitlab-workflow"
	],
	"customizations": {
		// Configure properties specific to VS Code.
		"vscode": {
			"settings": {
				"terminal.integrated.defaultProfile.linux": "fish"
			}
		}
	}
}